<?xml version="1.0" encoding="UTF-8" standalone="no"?>
<!-- Created with Inkscape (http://www.inkscape.org/) -->

<svg
   xmlns:dc="http://purl.org/dc/elements/1.1/"
   xmlns:cc="http://creativecommons.org/ns#"
   xmlns:rdf="http://www.w3.org/1999/02/22-rdf-syntax-ns#"
   xmlns:svg="http://www.w3.org/2000/svg"
   xmlns="http://www.w3.org/2000/svg"
   xmlns:sodipodi="http://sodipodi.sourceforge.net/DTD/sodipodi-0.dtd"
   xmlns:inkscape="http://www.inkscape.org/namespaces/inkscape"
   width="512"
   height="512"
   viewBox="0 0 135.46666 135.46667"
   version="1.1"
   id="svg88"
   inkscape:version="0.92.3 (2405546, 2018-03-11)"
   sodipodi:docname="icon.svg">
  <defs
     id="defs82" />
  <sodipodi:namedview
     id="base"
     pagecolor="#ffffff"
     bordercolor="#666666"
     borderopacity="1.0"
     inkscape:pageopacity="0.0"
     inkscape:pageshadow="2"
     inkscape:zoom="0.35"
     inkscape:cx="-439.14689"
     inkscape:cy="348.97886"
     inkscape:document-units="mm"
     inkscape:current-layer="layer1"
     showgrid="false"
     units="px"
     inkscape:window-width="1366"
     inkscape:window-height="740"
     inkscape:window-x="0"
     inkscape:window-y="28"
     inkscape:window-maximized="1" />
  <metadata
     id="metadata85">
    <rdf:RDF>
      <cc:Work
         rdf:about="">
        <dc:format>image/svg+xml</dc:format>
        <dc:type
           rdf:resource="http://purl.org/dc/dcmitype/StillImage" />
        <dc:title></dc:title>
      </cc:Work>
    </rdf:RDF>
  </metadata>
  <g
     inkscape:label="Capa 1"
     inkscape:groupmode="layer"
     id="layer1"
     transform="translate(0,-161.53332)">
    <g
       transform="matrix(1.3389525,0,0,1.3389525,18.582924,166.07625)"
       id="g70">
      <path
         inkscape:connector-curvature="0"
         d="m 51.203755,48.267815 c -3.49625,0 -6.32875,-2.8325 -6.32875,-6.32875 0,-0.36875 0.03125,-0.73 0.09375,-1.08125 l -15.135,-8.715 c -1.10125,0.93 -2.525,1.49125 -4.07875,1.49125 -3.49625,0 -6.33,-2.83375 -6.33,-6.32875 0,-3.495 2.83375,-6.32875 6.33,-6.32875 3.49625,0 6.33,2.83375 6.33,6.32875 0,0.4025 -0.04125,0.79625 -0.11375,1.17875 l 15.08,8.6825 c 1.11125,-0.96875 2.56375,-1.55625 4.1525,-1.55625 3.49375,0 6.3275,2.83375 6.3275,6.32875 0,3.49625 -2.83375,6.32875 -6.3275,6.32875 m -19.19625,8.405 c 0,3.495 -2.8325,6.32875 -6.32875,6.32875 -3.49375,0 -6.3275,-2.83375 -6.3275,-6.32875 0,-3.49625 2.83375,-6.33 6.3275,-6.33 1.57125,0 3.00625,0.57375 4.1125,1.52125 l 11.03375,-6.34125 c 0.47125,1.36125 1.20375,2.60125 2.135,3.66125 l -11.05375,6.35375 c 0.065,0.36875 0.10125,0.7475 0.10125,1.135 m 38.055,-38.62375 -30.0525,-17.1725 c -2.04625,-1.16875 -4.55875,-1.16875 -6.605,0 l -30.05,17.1725 c -2.075,1.185 -3.355,3.3925 -3.355,5.78 v 34.9325 c 0,2.3775 1.26875,4.57625 3.32875,5.765 l 51.73375,29.86125 0.0087,-21.21 15.0125,-8.65125 c 2.0625,-1.18875 3.3325,-3.3875 3.3325,-5.7675 v -34.93 c 0,-2.3875 -1.28,-4.595 -3.35375,-5.78"
         style="fill:#042b48;fill-opacity:1;fill-rule:nonzero;stroke:none;stroke-width:1.25"
         id="path4213" />
    </g>
  </g>
</svg>
